[
  {
    "name" : "Luke Skywalker",
    "height": "172",
    "mass": "77",
    "hair_color": "blond",
    "skin_color": "fair",
    "eye_color": "blue",
    "birth_year": "19 BBY",
    "gender": "male"
  },
  {
    "name": "C-3PO",
    "height": "167",
    "mass": "75",
    "hair_color": "none",
    "skin_color": "gold",
    "eye_color": "yellow",
    "birth_year": "32 BBY",
    "gender": "Male-Identified Droid"
  },
  {
    "name": "R2-D2",
    "height": "96",
    "mass": "32",
    "hair_color": "none",
    "skin_color": "white, gold",
    "eye_color": "red",
    "birth_year": "32 BBY",
    "gender": "Male-Identified Droid"
  },
  {
    "name": "Darth Vader",
    "height": "202",
    "mass": "136",
    "hair_color": "none",
    "skin_color": "white",
    "eye_color": "yellow",
    "birth_year": "41.9 BBY",
    "gender": "male"
  },
  {
    "name": "Leia Organa",
    "height": "150",
    "mass": "49",
    "hair_color": "brown",
    "skin_color": "light",
    "eye_color": "brown",
    "birth_year": "19 BBY",
    "gender": "female"
  },
  {
    "name": "Obi-Wan Kenobi",
    "height": "182",
    "mass": "77",
    "hair_color": "auburn, white",
    "skin_color": "fair",
    "eye_color": "blue-gray",
    "birth_year": "57 BBY",
    "gender": "male"
  },
  {
    "name": "Chewbacca",
    "height": "228",
    "mass": "112",
    "hair_color": "brown",
    "skin_color": "grey",
    "eye_color": "blue",
    "birth_year": "200 BBY",
    "gender": "male"
  },
  {
    "name": "Han Solo",
    "height": "180",
    "mass": "80",
    "hair_color": "brown",
    "skin_color": "fair",
    "eye_color": "brown",
    "birth_year": "29 BBY",
    "gender": "male"
  },
  {
    "name": "Rey",
    "height": "170",
    "mass": "unknown",
    "hair_color": "brown",
    "skin_color": "light",
    "eye_color": "hazel",
    "birth_year": "unknown",
    "gender": "female"
  },
  {
    "name": "Finn",
    "height": "unknown",
    "mass": "unknown",
    "hair_color": "black",
    "skin_color": "dark",
    "eye_color": "dark",
    "birth_year": "unknown",
    "gender": "male"
  },
  {
    "name": "Poe Dameron",
    "height": "unknown",
    "mass": "unknown",
    "hair_color": "brown",
    "skin_color": "light",
    "eye_color": "brown",
    "birth_year": "unknown",
    "gender": "male"
  },
  {
    "name": "Mace Windu",
    "height": "190",
    "mass": "unknown",
    "hair_color": "none",
    "skin_color": "dark",
    "eye_color": "brown",
    "birth_year": "72 BBY",
    "gender": "male"
  }
]
